{"help": "https://data.qld.gov.au/api/3/action/help_show?name=datastore_search", "success": true, "result": {"include_total": true, "resource_id": "7afe7233-fae0-4024-bc98-3a72f05675bd", "fields": [{"type": "int", "id": "_id"}, {"type": "text", "id": "Site"}, {"type": "numeric", "id": "Seconds"}, {"type": "timestamp", "id": "DateTime"}, {"type": "numeric", "id": "Water Level"}, {"type": "numeric", "id": "Prediction"}, {"type": "numeric", "id": "Residual"}], "records_format": "objects", "records": [{"_id":1,"Site":"abellpoint","Seconds":1540044000,"DateTime":"2018-10-21T00:00:00","Water Level":1.243,"Prediction":1.374,"Residual":-0.131},{"_id":2,"Site":"abellpoint","Seconds":1540044600,"DateTime":"2018-10-21T00:10:00","Water Level":1.148,"Prediction":1.286,"Residual":-0.138},{"_id":3,"Site":"abellpoint","Seconds":1540045200,"DateTime":"2018-10-21T00:20:00","Water Level":1.073,"Prediction":1.201,"Residual":-0.128},{"_id":4,"Site":"abellpoint","Seconds":1540045800,"DateTime":"2018-10-21T00:30:00","Water Level":0.993,"Prediction":1.121,"Residual":-0.128},{"_id":5,"Site":"abellpoint","Seconds":1540046400,"DateTime":"2018-10-21T00:40:00","Water Level":0.917,"Prediction":1.046,"Residual":-0.129}], "limit": 5, "_links": {"start": "/api/action/datastore_search?limit=5&resource_id=7afe7233-fae0-4024-bc98-3a72f05675bd", "next": "/api/action/datastore_search?offset=5&limit=5&resource_id=7afe7233-fae0-4024-bc98-3a72f05675bd"}, "total": 55068}}